<?xml version="1.0" encoding="UTF-8" standalone="no"?>
<!-- Created with Inkscape (http://www.inkscape.org/) -->

<svg
   xmlns:dc="http://purl.org/dc/elements/1.1/"
   xmlns:cc="http://creativecommons.org/ns#"
   xmlns:rdf="http://www.w3.org/1999/02/22-rdf-syntax-ns#"
   xmlns:svg="http://www.w3.org/2000/svg"
   xmlns="http://www.w3.org/2000/svg"
   xmlns:xlink="http://www.w3.org/1999/xlink"
   xmlns:sodipodi="http://sodipodi.sourceforge.net/DTD/sodipodi-0.dtd"
   xmlns:inkscape="http://www.inkscape.org/namespaces/inkscape"
   id="svg2"
   version="1.1"
   inkscape:version="0.91 r13725"
   width="16"
   height="16"
   viewBox="0 0 16 16"
   sodipodi:docname="checkbox-checked-dark.svg">
  <metadata
     id="metadata8">
    <rdf:RDF>
      <cc:Work
         rdf:about="">
        <dc:format>image/svg+xml</dc:format>
        <dc:type
           rdf:resource="http://purl.org/dc/dcmitype/StillImage" />
        <dc:title></dc:title>
      </cc:Work>
    </rdf:RDF>
  </metadata>
  <defs
     id="defs6" />
  <sodipodi:namedview
     pagecolor="#ffffff"
     bordercolor="#666666"
     borderopacity="1"
     objecttolerance="10"
     gridtolerance="10"
     guidetolerance="10"
     inkscape:pageopacity="0"
     inkscape:pageshadow="2"
     inkscape:window-width="729"
     inkscape:window-height="480"
     id="namedview4"
     showgrid="false"
     inkscape:zoom="14.75"
     inkscape:cx="8"
     inkscape:cy="8"
     inkscape:window-x="0"
     inkscape:window-y="0"
     inkscape:window-maximized="0"
     inkscape:current-layer="svg2" />
  <image
     width="16"
     height="16"
     preserveAspectRatio="none"
     xlink:href="data:image/png;base64,iVBORw0KGgoAAAANSUhEUgAAABAAAAAQCAYAAAAf8/9hAAAABHNCSVQICAgIfAhkiAAAAAlwSFlz
AAAN1wAADdcBQiibeAAAABl0RVh0U29mdHdhcmUAd3d3Lmlua3NjYXBlLm9yZ5vuPBoAAAEiSURB
VDiNpZA/S8NQFEfPe00qKf6pUVqpVvSbOCgODoJfIos4CgVXwSGz1A/h4uAgmN3RpbhZaStNQSel
TQwvDjVqiKmJ/rZ3uefcex/8MwJg77S9g5JnwHJGrisQ1vl+/VICoGQzBwywEhI2AWRUyAFHqX8X
/BoVeAx7t4l6JoEKPAbXNq5j89q+mSwI34aEKvh6Bx4Dx2bkttCMMsWFtVi/Fpvkv/B40UAacyxt
NRBSw3VsRv0WWsmkun2EPlNNFwhRQBR0/Kd7+lfHSN1g5N6lwokThG6MG6cr+M8PH/B8KvzjH2gl
k8WNg/E2QlLZPEyFEydEmTLXqe2eEAY+xfJqKpwqANBnaxPBKNEJ3Uzd8XQ+BQJh5ZR0VCisPwxN
5h3BA1LURDaCiAAAAABJRU5ErkJggg==
"
     id="image10"
     x="0"
     y="0" />
</svg>
